singlecycle.vcd
$date
	Thu Apr 20 11:24:51 2023
$end
$version
	Icarus Verilog
$end
$timescale
	1ps
$end
$scope module SingleCycleProcTest_v $end
$var wire 64 ! currentPC [63:0] $end
$var wire 64 " MemtoRegOut [63:0] $end
$var reg 1 # CLK $end
$var reg 1 $ Reset_L $end
$var reg 8 % passed [7:0] $end
$var reg 64 & startPC [63:0] $end
$var reg 16 ' watchdog [15:0] $end
$scope module uut $end
$var wire 1 # CLK $end
$var wire 1 $ resetl $end
$var wire 64 ( startpc [63:0] $end
$var wire 1 ) zero $end
$var wire 1 * uncond_branch $end
$var wire 3 + signop [2:0] $end
$var wire 5 , rn [4:0] $end
$var wire 5 - rm [4:0] $end
$var wire 1 . regwrite $end
$var wire 64 / regoutB [63:0] $end
$var wire 64 0 regoutA [63:0] $end
$var wire 1 1 reg2loc $end
$var wire 5 2 rd [4:0] $end
$var wire 11 3 opcode [10:0] $end
$var wire 64 4 nextpc [63:0] $end
$var wire 64 5 muxW [63:0] $end
$var wire 64 6 muxALU [63:0] $end
$var wire 1 7 memwrite $end
$var wire 1 8 memread $end
$var wire 1 9 mem2reg $end
$var wire 32 : instruction [31:0] $end
$var wire 64 ; extimm [63:0] $end
$var wire 1 < branch $end
$var wire 1 = alusrc $end
$var wire 64 > aluout [63:0] $end
$var wire 4 ? aluctrl [3:0] $end
$var wire 64 @ MemtoRegOut [63:0] $end
$var reg 64 A currentpc [63:0] $end
$scope module ALU $end
$var wire 64 B BusB [63:0] $end
$var wire 1 ) Zero $end
$var wire 64 C BusW [63:0] $end
$var wire 64 D BusA [63:0] $end
$var wire 4 E ALUCtrl [3:0] $end
$var reg 64 F tempBusW [63:0] $end
$var reg 1 G zero $end
$upscope $end
$scope module DataMemory $end
$var wire 64 H Address [63:0] $end
$var wire 1 # Clock $end
$var wire 64 I WriteData [63:0] $end
$var wire 1 7 MemoryWrite $end
$var wire 1 8 MemoryRead $end
$var reg 64 J ReadData [63:0] $end
$scope task initset $end
$var reg 64 K addr [63:0] $end
$var reg 64 L data [63:0] $end
$upscope $end
$upscope $end
$scope module NextPClogic $end
$var wire 1 ) ALUZero $end
$var wire 64 M CurrentPC [63:0] $end
$var wire 1 * Uncondbranch $end
$var wire 64 N SignExtImm64 [63:0] $end
$var wire 1 < Branch $end
$var reg 64 O NextPC [63:0] $end
$var reg 64 P tempImm [63:0] $end
$upscope $end
$scope module RegisterFile $end
$var wire 64 Q BusA [63:0] $end
$var wire 64 R BusB [63:0] $end
$var wire 64 S BusW [63:0] $end
$var wire 1 # Clk $end
$var wire 5 T RA [4:0] $end
$var wire 5 U RB [4:0] $end
$var wire 5 V RW [4:0] $end
$var wire 1 . RegWr $end
$upscope $end
$scope module SignExtender $end
$var wire 26 W InstructionBits [25:0] $end
$var wire 3 X Control [2:0] $end
$var reg 64 Y Extended [63:0] $end
$var reg 1 Z extBit $end
$upscope $end
$scope module control $end
$var wire 11 [ opcode [10:0] $end
$var reg 4 \ aluop [3:0] $end
$var reg 1 = alusrc $end
$var reg 1 < branch $end
$var reg 1 9 mem2reg $end
$var reg 1 8 memread $end
$var reg 1 7 memwrite $end
$var reg 1 1 reg2loc $end
$var reg 1 . regwrite $end
$var reg 3 ] signop [2:0] $end
$var reg 1 * uncond_branch $end
$upscope $end
$scope module imem $end
$var wire 64 ^ Address [63:0] $end
$var reg 32 _ Data [31:0] $end
$upscope $end
$upscope $end
$scope task allPassed $end
$var reg 8 ` numTests [7:0] $end
$var reg 8 a passed [7:0] $end
$upscope $end
$scope task passTest $end
$var reg 64 b actualOut [63:0] $end
$var reg 64 c expectedOut [63:0] $end
$var reg 8 d passed [7:0] $end
$var reg 257 e testType [256:0] $end
$upscope $end
$upscope $end
$enddefinitions $end
#0
$dumpvars
bx e
bx d
bx c
bx b
bx a
bx `
bx _
bx ^
bx ]
bx \
bx [
xZ
bx Y
bx X
bx W
bx V
bx U
bx T
bx S
bx R
bx Q
bx P
bx O
bx N
bx M
b0 L
b100000 K
bx J
bx I
bx H
xG
bx F
bx E
bx D
bx C
bx B
bx A
bx @
bx ?
bx >
x=
x<
bx ;
bx :
x9
x8
x7
bx 6
bx 5
bx 4
bx 3
bx 2
x1
bx 0
bx /
x.
bx -
bx ,
bx +
x*
x)
b0 (
b0 '
b0 &
b0 %
1$
0#
bx "
bx !
$end
#60000
1#
#120000
b1 '
0#
#121000
0$
#180000
1#
#240000
b10 '
0#
#243000
0)
0G
b0 6
b0 B
b0 ;
b0 N
b0 Y
0Z
b1 +
b1 X
b1 ]
b10 ?
b10 E
b10 \
1.
1=
07
19
18
0<
0*
b0x00x ,
b0x00x U
b10000000000001111101001 W
b11111000010 3
b11111000010 [
b11111 -
b11111 T
b1001 2
b1001 V
b100 4
b100 O
b0 P
b11111000010000000000001111101001 :
b11111000010000000000001111101001 _
b0 !
b0 A
b0 M
b0 ^
#245000
1)
1G
b0 >
b0 C
b0 F
b0 H
b0 0
b0 D
b0 Q
#300000
b1 5
b1 S
b1 "
b1 @
b1 J
1$
1#
#360000
b11 '
0#
#363000
0)
0G
b1000 >
b1000 C
b1000 F
b1000 H
b1000 6
b1000 B
b100000 P
b1000 ;
b1000 N
b1000 Y
b0x0x0 ,
b0x0x0 U
b10000001000001111101010 W
b1010 2
b1010 V
b1000 4
b1000 O
b11111000010000001000001111101010 :
b11111000010000001000001111101010 _
b100 !
b100 A
b100 M
b100 ^
#420000
b1010 5
b1010 S
b1010 "
b1010 @
b1010 J
1#
#480000
b100 '
0#
#483000
b10000 >
b10000 C
b10000 F
b10000 H
b10000 6
b10000 B
b1000000 P
b10000 ;
b10000 N
b10000 Y
b0x0x1 ,
b0x0x1 U
b10000010000001111101011 W
b1011 2
b1011 V
b1100 4
b1100 O
b11111000010000010000001111101011 :
b11111000010000010000001111101011 _
b1000 !
b1000 A
b1000 M
b1000 ^
#540000
b101 5
b101 S
b101 "
b101 @
b101 J
1#
#600000
b101 '
0#
#603000
b11000 >
b11000 C
b11000 F
b11000 H
b11000 6
b11000 B
b1100000 P
b11000 ;
b11000 N
b11000 Y
b0xx0x ,
b0xx0x U
b10000011000001111101100 W
b1100 2
b1100 V
b10000 4
b10000 O
b11111000010000011000001111101100 :
b11111000010000011000001111101100 _
b1100 !
b1100 A
b1100 M
b1100 ^
#660000
b111111111011111010100111110111101010110110111110111011111111 5
b111111111011111010100111110111101010110110111110111011111111 S
b111111111011111010100111110111101010110110111110111011111111 "
b111111111011111010100111110111101010110110111110111011111111 @
b111111111011111010100111110111101010110110111110111011111111 J
1#
#720000
b110 '
0#
#723000
b100000 >
b100000 C
b100000 F
b100000 H
b100000 6
b100000 B
b10000000 P
b100000 ;
b100000 N
b100000 Y
b0xxxx ,
b0xxxx U
b10000100000001111101101 W
b1101 2
b1101 V
b10100 4
b10100 O
b11111000010000100000001111101101 :
b11111000010000100000001111101101 _
b10000 !
b10000 A
b10000 M
b10000 ^
#780000
b0 5
b0 S
b0 "
b0 @
b0 J
1#
#840000
b111 '
0#
#843000
bx >
bx C
bx F
bx H
bx 6
bx B
bx 5
bx S
b0xx +
b0xx X
b0xx ]
b1 ?
b1 E
b1 \
0=
09
08
01
b1011 ,
b1011 U
b10000010110000000101001010 W
b10101010000 3
b10101010000 [
b1010 -
b1010 T
b1010 2
b1010 V
b11000 4
b11000 O
b10101010000010110000000101001010 :
b10101010000010110000000101001010 _
b10100 !
b10100 A
b10100 M
b10100 ^
#845000
b1111 5
b1111 S
b101 6
b101 B
b1111 >
b1111 C
b1111 F
b1111 H
b101 /
b101 I
b101 R
b1010 0
b1010 D
b1010 Q
#900000
1#
#960000
b1000 '
0#
#963000
b0 5
b0 S
1)
1G
b0 >
b0 C
b0 F
b0 H
b0 ?
b0 E
b0 \
b1010 ,
b1010 U
b10000010100000000110001100 W
b10001010000 3
b10001010000 [
b1100 -
b1100 T
b1100 2
b1100 V
b11100 4
b11100 O
b10001010000010100000000110001100 :
b10001010000010100000000110001100 _
b11000 !
b11000 A
b11000 M
b11000 ^
#965000
b1111 5
b1111 S
b1111 6
b1111 B
0)
0G
b1111 >
b1111 C
b1111 F
b1111 H
b1111 /
b1111 I
b1111 R
b111111111011111010100111110111101010110110111110111011111111 0
b111111111011111010100111110111101010110110111110111011111111 D
b111111111011111010100111110111101010110110111110111011111111 Q
#1020000
1#
#1080000
b1001 '
0#
#1083000
b0xxxx 5
b0xxxx S
b10000 P
b100 ;
b100 N
b100 Y
b11 +
b11 X
b11 ]
b111 ?
b111 E
b111 \
0.
x9
1<
11
b1100 ,
b1100 U
b10001100 W
b10110100000 3
b10110100000 [
b100 -
b100 T
b100000 4
b100000 O
b10110100000000000000000010001100 :
b10110100000000000000000010001100 _
b11100 !
b11100 A
b11100 M
b11100 ^
#1085000
bx 0
bx D
bx Q
#1140000
1#
#1200000
b1010 '
0#
#1203000
bx >
bx C
bx F
bx H
bx 5
bx S
b0xx +
b0xx X
b0xx ]
b10 ?
b10 E
b10 \
1.
09
0<
01
b1001 ,
b1001 U
b11000010010000000110101101 W
b10001011000 3
b10001011000 [
b1101 -
b1101 T
b1101 2
b1101 V
b100100 4
b100100 O
b10001011000010010000000110101101 :
b10001011000010010000000110101101 _
b100000 !
b100000 A
b100000 M
b100000 ^
#1205000
b1 5
b1 S
b1 6
b1 B
b1 >
b1 C
b1 F
b1 H
b1 /
b1 I
b1 R
b0 0
b0 D
b0 Q
#1260000
1#
#1320000
b1011 '
0#
#1323000
b1111111111111111111111111111111111111111111111111111111111111111 5
b1111111111111111111111111111111111111111111111111111111111111111 S
b1111111111111111111111111111111111111111111111111111111111111111 >
b1111111111111111111111111111111111111111111111111111111111111111 C
b1111111111111111111111111111111111111111111111111111111111111111 F
b1111111111111111111111111111111111111111111111111111111111111111 H
b110 ?
b110 E
b110 \
b11000010010000000110001100 W
b11001011000 3
b11001011000 [
b1100 -
b1100 T
b1100 2
b1100 V
b101000 4
b101000 O
b11001011000010010000000110001100 :
b11001011000010010000000110001100 _
b100100 !
b100100 A
b100100 M
b100100 ^
#1325000
b1110 5
b1110 S
b1110 >
b1110 C
b1110 F
b1110 H
b1111 0
b1111 D
b1111 Q
#1380000
1#
#1440000
b1100 '
0#
#1443000
bx01 6
bx01 B
b0xxx0 5
b0xxx0 S
b1111111111111111111111111111111111111111111111111111111111110100 P
b1111111111111111111111111111111111111111111111111111111111111101 ;
b1111111111111111111111111111111111111111111111111111111111111101 N
b1111111111111111111111111111111111111111111111111111111111111101 Y
1Z
b10 +
b10 X
b10 ]
bx ?
bx E
bx \
0.
x=
x9
x<
1*
x1
b111x1 ,
b111x1 U
b11111111111111111111111101 W
b10111111 3
b10111111 [
b11111 -
b11111 T
b11101 2
b11101 V
b11100 4
b11100 O
b10111111111111111111111111101 :
b10111111111111111111111111101 _
b101000 !
b101000 A
b101000 M
b101000 ^
#1445000
bx 6
bx B
bx /
bx I
bx R
b0 0
b0 D
b0 Q
#1500000
1#
#1560000
b1101 '
0#
#1563000
bx 5
bx S
bx >
bx C
bx F
bx H
b10000 P
b100 ;
b100 N
b100 Y
0Z
b11 +
b11 X
b11 ]
b111 ?
b111 E
b111 \
0=
1<
0*
11
b1100 ,
b1100 U
b10001100 W
b10110100000 3
b10110100000 [
b100 -
b100 T
b1100 2
b1100 V
b100000 4
b100000 O
b10110100000000000000000010001100 :
b10110100000000000000000010001100 _
b11100 !
b11100 A
b11100 M
b11100 ^
#1565000
b0xxx0 5
b0xxx0 S
b1110 >
b1110 C
b1110 F
b1110 H
b1110 6
b1110 B
b1110 /
b1110 I
b1110 R
bx 0
bx D
bx Q
#1620000
1#
#1680000
b1110 '
0#
#1683000
bx >
bx C
bx F
bx H
bx 5
bx S
b0xx +
b0xx X
b0xx ]
b10 ?
b10 E
b10 \
1.
09
0<
01
b1001 ,
b1001 U
b11000010010000000110101101 W
b10001011000 3
b10001011000 [
b1101 -
b1101 T
b1101 2
b1101 V
b100100 4
b100100 O
b10001011000010010000000110101101 :
b10001011000010010000000110101101 _
b100000 !
b100000 A
b100000 M
b100000 ^
#1685000
b10 5
b10 S
b1 6
b1 B
b10 >
b10 C
b10 F
b10 H
b1 /
b1 I
b1 R
b1 0
b1 D
b1 Q
#1740000
1#
#1800000
b1111 '
0#
#1803000
b0 5
b0 S
1)
1G
b0 >
b0 C
b0 F
b0 H
b110 ?
b110 E
b110 \
b11000010010000000110001100 W
b11001011000 3
b11001011000 [
b1100 -
b1100 T
b1100 2
b1100 V
b101000 4
b101000 O
b11001011000010010000000110001100 :
b11001011000010010000000110001100 _
b100100 !
b100100 A
b100100 M
b100100 ^
#1805000
b1101 5
b1101 S
0)
0G
b1101 >
b1101 C
b1101 F
b1101 H
b1110 0
b1110 D
b1110 Q
#1860000
1#
#1920000
b10000 '
0#
#1923000
bx01 6
bx01 B
b0xx0x 5
b0xx0x S
b1111111111111111111111111111111111111111111111111111111111110100 P
b1111111111111111111111111111111111111111111111111111111111111101 ;
b1111111111111111111111111111111111111111111111111111111111111101 N
b1111111111111111111111111111111111111111111111111111111111111101 Y
1Z
b10 +
b10 X
b10 ]
bx ?
bx E
bx \
0.
x=
x9
x<
1*
x1
b111x1 ,
b111x1 U
b11111111111111111111111101 W
b10111111 3
b10111111 [
b11111 -
b11111 T
b11101 2
b11101 V
b11100 4
b11100 O
b10111111111111111111111111101 :
b10111111111111111111111111101 _
b101000 !
b101000 A
b101000 M
b101000 ^
#1925000
bx 6
bx B
bx /
bx I
bx R
b0 0
b0 D
b0 Q
#1980000
1#
#2040000
b10001 '
0#
#2043000
bx 5
bx S
bx >
bx C
bx F
bx H
b10000 P
b100 ;
b100 N
b100 Y
0Z
b11 +
b11 X
b11 ]
b111 ?
b111 E
b111 \
0=
1<
0*
11
b1100 ,
b1100 U
b10001100 W
b10110100000 3
b10110100000 [
b100 -
b100 T
b1100 2
b1100 V
b100000 4
b100000 O
b10110100000000000000000010001100 :
b10110100000000000000000010001100 _
b11100 !
b11100 A
b11100 M
b11100 ^
#2045000
b0xx0x 5
b0xx0x S
b1101 >
b1101 C
b1101 F
b1101 H
b1101 6
b1101 B
b1101 /
b1101 I
b1101 R
bx 0
bx D
bx Q
#2100000
1#
#2160000
b10010 '
0#
#2163000
bx >
bx C
bx F
bx H
bx 5
bx S
b0xx +
b0xx X
b0xx ]
b10 ?
b10 E
b10 \
1.
09
0<
01
b1001 ,
b1001 U
b11000010010000000110101101 W
b10001011000 3
b10001011000 [
b1101 -
b1101 T
b1101 2
b1101 V
b100100 4
b100100 O
b10001011000010010000000110101101 :
b10001011000010010000000110101101 _
b100000 !
b100000 A
b100000 M
b100000 ^
#2165000
b11 5
b11 S
b1 6
b1 B
b11 >
b11 C
b11 F
b11 H
b1 /
b1 I
b1 R
b10 0
b10 D
b10 Q
#2220000
1#
#2280000
b10011 '
0#
#2283000
b1 5
b1 S
b1 >
b1 C
b1 F
b1 H
b110 ?
b110 E
b110 \
b11000010010000000110001100 W
b11001011000 3
b11001011000 [
b1100 -
b1100 T
b1100 2
b1100 V
b101000 4
b101000 O
b11001011000010010000000110001100 :
b11001011000010010000000110001100 _
b100100 !
b100100 A
b100100 M
b100100 ^
#2285000
b1100 5
b1100 S
b1100 >
b1100 C
b1100 F
b1100 H
b1101 0
b1101 D
b1101 Q
#2340000
1#
#2400000
b10100 '
0#
#2403000
bx01 6
bx01 B
b0xx00 5
b0xx00 S
b1111111111111111111111111111111111111111111111111111111111110100 P
b1111111111111111111111111111111111111111111111111111111111111101 ;
b1111111111111111111111111111111111111111111111111111111111111101 N
b1111111111111111111111111111111111111111111111111111111111111101 Y
1Z
b10 +
b10 X
b10 ]
bx ?
bx E
bx \
0.
x=
x9
x<
1*
x1
b111x1 ,
b111x1 U
b11111111111111111111111101 W
b10111111 3
b10111111 [
b11111 -
b11111 T
b11101 2
b11101 V
b11100 4
b11100 O
b10111111111111111111111111101 :
b10111111111111111111111111101 _
b101000 !
b101000 A
b101000 M
b101000 ^
#2405000
bx 6
bx B
bx /
bx I
bx R
b0 0
b0 D
b0 Q
#2460000
1#
#2520000
b10101 '
0#
#2523000
bx 5
bx S
bx >
bx C
bx F
bx H
b10000 P
b100 ;
b100 N
b100 Y
0Z
b11 +
b11 X
b11 ]
b111 ?
b111 E
b111 \
0=
1<
0*
11
b1100 ,
b1100 U
b10001100 W
b10110100000 3
b10110100000 [
b100 -
b100 T
b1100 2
b1100 V
b100000 4
b100000 O
b10110100000000000000000010001100 :
b10110100000000000000000010001100 _
b11100 !
b11100 A
b11100 M
b11100 ^
#2525000
b0xx00 5
b0xx00 S
b1100 >
b1100 C
b1100 F
b1100 H
b1100 6
b1100 B
b1100 /
b1100 I
b1100 R
bx 0
bx D
bx Q
#2580000
1#
#2640000
b10110 '
0#
#2643000
bx >
bx C
bx F
bx H
bx 5
bx S
b0xx +
b0xx X
b0xx ]
b10 ?
b10 E
b10 \
1.
09
0<
01
b1001 ,
b1001 U
b11000010010000000110101101 W
b10001011000 3
b10001011000 [
b1101 -
b1101 T
b1101 2
b1101 V
b100100 4
b100100 O
b10001011000010010000000110101101 :
b10001011000010010000000110101101 _
b100000 !
b100000 A
b100000 M
b100000 ^
#2645000
b100 5
b100 S
b1 6
b1 B
b100 >
b100 C
b100 F
b100 H
b1 /
b1 I
b1 R
b11 0
b11 D
b11 Q
#2700000
1#
#2760000
b10111 '
0#
#2763000
b10 5
b10 S
b10 >
b10 C
b10 F
b10 H
b110 ?
b110 E
b110 \
b11000010010000000110001100 W
b11001011000 3
b11001011000 [
b1100 -
b1100 T
b1100 2
b1100 V
b101000 4
b101000 O
b11001011000010010000000110001100 :
b11001011000010010000000110001100 _
b100100 !
b100100 A
b100100 M
b100100 ^
#2765000
b1011 5
b1011 S
b1011 >
b1011 C
b1011 F
b1011 H
b1100 0
b1100 D
b1100 Q
#2820000
1#
#2880000
b11000 '
0#
#2883000
bx01 6
bx01 B
b0x0xx 5
b0x0xx S
b1111111111111111111111111111111111111111111111111111111111110100 P
b1111111111111111111111111111111111111111111111111111111111111101 ;
b1111111111111111111111111111111111111111111111111111111111111101 N
b1111111111111111111111111111111111111111111111111111111111111101 Y
1Z
b10 +
b10 X
b10 ]
bx ?
bx E
bx \
0.
x=
x9
x<
1*
x1
b111x1 ,
b111x1 U
b11111111111111111111111101 W
b10111111 3
b10111111 [
b11111 -
b11111 T
b11101 2
b11101 V
b11100 4
b11100 O
b10111111111111111111111111101 :
b10111111111111111111111111101 _
b101000 !
b101000 A
b101000 M
b101000 ^
#2885000
bx 6
bx B
bx /
bx I
bx R
b0 0
b0 D
b0 Q
#2940000
1#
#3000000
b11001 '
0#
#3003000
bx 5
bx S
bx >
bx C
bx F
bx H
b10000 P
b100 ;
b100 N
b100 Y
0Z
b11 +
b11 X
b11 ]
b111 ?
b111 E
b111 \
0=
1<
0*
11
b1100 ,
b1100 U
b10001100 W
b10110100000 3
b10110100000 [
b100 -
b100 T
b1100 2
b1100 V
b100000 4
b100000 O
b10110100000000000000000010001100 :
b10110100000000000000000010001100 _
b11100 !
b11100 A
b11100 M
b11100 ^
#3005000
b0x0xx 5
b0x0xx S
b1011 >
b1011 C
b1011 F
b1011 H
b1011 6
b1011 B
b1011 /
b1011 I
b1011 R
bx 0
bx D
bx Q
#3060000
1#
#3120000
b11010 '
0#
#3123000
bx >
bx C
bx F
bx H
bx 5
bx S
b0xx +
b0xx X
b0xx ]
b10 ?
b10 E
b10 \
1.
09
0<
01
b1001 ,
b1001 U
b11000010010000000110101101 W
b10001011000 3
b10001011000 [
b1101 -
b1101 T
b1101 2
b1101 V
b100100 4
b100100 O
b10001011000010010000000110101101 :
b10001011000010010000000110101101 _
b100000 !
b100000 A
b100000 M
b100000 ^
#3125000
b101 5
b101 S
b1 6
b1 B
b101 >
b101 C
b101 F
b101 H
b1 /
b1 I
b1 R
b100 0
b100 D
b100 Q
#3180000
1#
#3240000
b11011 '
0#
#3243000
b11 5
b11 S
b11 >
b11 C
b11 F
b11 H
b110 ?
b110 E
b110 \
b11000010010000000110001100 W
b11001011000 3
b11001011000 [
b1100 -
b1100 T
b1100 2
b1100 V
b101000 4
b101000 O
b11001011000010010000000110001100 :
b11001011000010010000000110001100 _
b100100 !
b100100 A
b100100 M
b100100 ^
#3245000
b1010 5
b1010 S
b1010 >
b1010 C
b1010 F
b1010 H
b1011 0
b1011 D
b1011 Q
#3300000
1#
#3360000
b11100 '
0#
#3363000
bx01 6
bx01 B
b0x0x0 5
b0x0x0 S
b1111111111111111111111111111111111111111111111111111111111110100 P
b1111111111111111111111111111111111111111111111111111111111111101 ;
b1111111111111111111111111111111111111111111111111111111111111101 N
b1111111111111111111111111111111111111111111111111111111111111101 Y
1Z
b10 +
b10 X
b10 ]
bx ?
bx E
bx \
0.
x=
x9
x<
1*
x1
b111x1 ,
b111x1 U
b11111111111111111111111101 W
b10111111 3
b10111111 [
b11111 -
b11111 T
b11101 2
b11101 V
b11100 4
b11100 O
b10111111111111111111111111101 :
b10111111111111111111111111101 _
b101000 !
b101000 A
b101000 M
b101000 ^
#3365000
bx 6
bx B
bx /
bx I
bx R
b0 0
b0 D
b0 Q
#3420000
1#
#3480000
b11101 '
0#
#3483000
bx 5
bx S
bx >
bx C
bx F
bx H
b10000 P
b100 ;
b100 N
b100 Y
0Z
b11 +
b11 X
b11 ]
b111 ?
b111 E
b111 \
0=
1<
0*
11
b1100 ,
b1100 U
b10001100 W
b10110100000 3
b10110100000 [
b100 -
b100 T
b1100 2
b1100 V
b100000 4
b100000 O
b10110100000000000000000010001100 :
b10110100000000000000000010001100 _
b11100 !
b11100 A
b11100 M
b11100 ^
#3485000
b0x0x0 5
b0x0x0 S
b1010 >
b1010 C
b1010 F
b1010 H
b1010 6
b1010 B
b1010 /
b1010 I
b1010 R
bx 0
bx D
bx Q
#3540000
1#
#3600000
b11110 '
0#
#3603000
bx >
bx C
bx F
bx H
bx 5
bx S
b0xx +
b0xx X
b0xx ]
b10 ?
b10 E
b10 \
1.
09
0<
01
b1001 ,
b1001 U
b11000010010000000110101101 W
b10001011000 3
b10001011000 [
b1101 -
b1101 T
b1101 2
b1101 V
b100100 4
b100100 O
b10001011000010010000000110101101 :
b10001011000010010000000110101101 _
b100000 !
b100000 A
b100000 M
b100000 ^
#3605000
b110 5
b110 S
b1 6
b1 B
b110 >
b110 C
b110 F
b110 H
b1 /
b1 I
b1 R
b101 0
b101 D
b101 Q
#3660000
1#
#3720000
b11111 '
0#
#3723000
b100 5
b100 S
b100 >
b100 C
b100 F
b100 H
b110 ?
b110 E
b110 \
b11000010010000000110001100 W
b11001011000 3
b11001011000 [
b1100 -
b1100 T
b1100 2
b1100 V
b101000 4
b101000 O
b11001011000010010000000110001100 :
b11001011000010010000000110001100 _
b100100 !
b100100 A
b100100 M
b100100 ^
#3725000
b1001 5
b1001 S
b1001 >
b1001 C
b1001 F
b1001 H
b1010 0
b1010 D
b1010 Q
#3780000
1#
#3840000
b100000 '
0#
#3843000
bx01 6
bx01 B
b0x00x 5
b0x00x S
b1111111111111111111111111111111111111111111111111111111111110100 P
b1111111111111111111111111111111111111111111111111111111111111101 ;
b1111111111111111111111111111111111111111111111111111111111111101 N
b1111111111111111111111111111111111111111111111111111111111111101 Y
1Z
b10 +
b10 X
b10 ]
bx ?
bx E
bx \
0.
x=
x9
x<
1*
x1
b111x1 ,
b111x1 U
b11111111111111111111111101 W
b10111111 3
b10111111 [
b11111 -
b11111 T
b11101 2
b11101 V
b11100 4
b11100 O
b10111111111111111111111111101 :
b10111111111111111111111111101 _
b101000 !
b101000 A
b101000 M
b101000 ^
#3845000
bx 6
bx B
bx /
bx I
bx R
b0 0
b0 D
b0 Q
#3900000
1#
#3960000
b100001 '
0#
#3963000
bx 5
bx S
bx >
bx C
bx F
bx H
b10000 P
b100 ;
b100 N
b100 Y
0Z
b11 +
b11 X
b11 ]
b111 ?
b111 E
b111 \
0=
1<
0*
11
b1100 ,
b1100 U
b10001100 W
b10110100000 3
b10110100000 [
b100 -
b100 T
b1100 2
b1100 V
b100000 4
b100000 O
b10110100000000000000000010001100 :
b10110100000000000000000010001100 _
b11100 !
b11100 A
b11100 M
b11100 ^
#3965000
b0x00x 5
b0x00x S
b1001 >
b1001 C
b1001 F
b1001 H
b1001 6
b1001 B
b1001 /
b1001 I
b1001 R
bx 0
bx D
bx Q
#4020000
1#
#4080000
b100010 '
0#
#4083000
bx >
bx C
bx F
bx H
bx 5
bx S
b0xx +
b0xx X
b0xx ]
b10 ?
b10 E
b10 \
1.
09
0<
01
b1001 ,
b1001 U
b11000010010000000110101101 W
b10001011000 3
b10001011000 [
b1101 -
b1101 T
b1101 2
b1101 V
b100100 4
b100100 O
b10001011000010010000000110101101 :
b10001011000010010000000110101101 _
b100000 !
b100000 A
b100000 M
b100000 ^
#4085000
b111 5
b111 S
b1 6
b1 B
b111 >
b111 C
b111 F
b111 H
b1 /
b1 I
b1 R
b110 0
b110 D
b110 Q
#4140000
1#
#4200000
b100011 '
0#
#4203000
b101 5
b101 S
b101 >
b101 C
b101 F
b101 H
b110 ?
b110 E
b110 \
b11000010010000000110001100 W
b11001011000 3
b11001011000 [
b1100 -
b1100 T
b1100 2
b1100 V
b101000 4
b101000 O
b11001011000010010000000110001100 :
b11001011000010010000000110001100 _
b100100 !
b100100 A
b100100 M
b100100 ^
#4205000
b1000 5
b1000 S
b1000 >
b1000 C
b1000 F
b1000 H
b1001 0
b1001 D
b1001 Q
#4260000
1#
#4320000
b100100 '
0#
#4323000
bx01 6
bx01 B
b0x000 5
b0x000 S
b1111111111111111111111111111111111111111111111111111111111110100 P
b1111111111111111111111111111111111111111111111111111111111111101 ;
b1111111111111111111111111111111111111111111111111111111111111101 N
b1111111111111111111111111111111111111111111111111111111111111101 Y
1Z
b10 +
b10 X
b10 ]
bx ?
bx E
bx \
0.
x=
x9
x<
1*
x1
b111x1 ,
b111x1 U
b11111111111111111111111101 W
b10111111 3
b10111111 [
b11111 -
b11111 T
b11101 2
b11101 V
b11100 4
b11100 O
b10111111111111111111111111101 :
b10111111111111111111111111101 _
b101000 !
b101000 A
b101000 M
b101000 ^
#4325000
bx 6
bx B
bx /
bx I
bx R
b0 0
b0 D
b0 Q
#4380000
1#
#4440000
b100101 '
0#
#4443000
bx 5
bx S
bx >
bx C
bx F
bx H
b10000 P
b100 ;
b100 N
b100 Y
0Z
b11 +
b11 X
b11 ]
b111 ?
b111 E
b111 \
0=
1<
0*
11
b1100 ,
b1100 U
b10001100 W
b10110100000 3
b10110100000 [
b100 -
b100 T
b1100 2
b1100 V
b100000 4
b100000 O
b10110100000000000000000010001100 :
b10110100000000000000000010001100 _
b11100 !
b11100 A
b11100 M
b11100 ^
#4445000
b0x000 5
b0x000 S
b1000 >
b1000 C
b1000 F
b1000 H
b1000 6
b1000 B
b1000 /
b1000 I
b1000 R
bx 0
bx D
bx Q
#4500000
1#
#4560000
b100110 '
0#
#4563000
bx >
bx C
bx F
bx H
bx 5
bx S
b0xx +
b0xx X
b0xx ]
b10 ?
b10 E
b10 \
1.
09
0<
01
b1001 ,
b1001 U
b11000010010000000110101101 W
b10001011000 3
b10001011000 [
b1101 -
b1101 T
b1101 2
b1101 V
b100100 4
b100100 O
b10001011000010010000000110101101 :
b10001011000010010000000110101101 _
b100000 !
b100000 A
b100000 M
b100000 ^
#4565000
b1000 5
b1000 S
b1 6
b1 B
b1000 >
b1000 C
b1000 F
b1000 H
b1 /
b1 I
b1 R
b111 0
b111 D
b111 Q
#4620000
1#
#4680000
b100111 '
0#
#4683000
b110 5
b110 S
b110 >
b110 C
b110 F
b110 H
b110 ?
b110 E
b110 \
b11000010010000000110001100 W
b11001011000 3
b11001011000 [
b1100 -
b1100 T
b1100 2
b1100 V
b101000 4
b101000 O
b11001011000010010000000110001100 :
b11001011000010010000000110001100 _
b100100 !
b100100 A
b100100 M
b100100 ^
#4685000
b111 5
b111 S
b111 >
b111 C
b111 F
b111 H
b1000 0
b1000 D
b1000 Q
#4740000
1#
#4800000
b101000 '
0#
#4803000
bx01 6
bx01 B
b0xxx 5
b0xxx S
b1111111111111111111111111111111111111111111111111111111111110100 P
b1111111111111111111111111111111111111111111111111111111111111101 ;
b1111111111111111111111111111111111111111111111111111111111111101 N
b1111111111111111111111111111111111111111111111111111111111111101 Y
1Z
b10 +
b10 X
b10 ]
bx ?
bx E
bx \
0.
x=
x9
x<
1*
x1
b111x1 ,
b111x1 U
b11111111111111111111111101 W
b10111111 3
b10111111 [
b11111 -
b11111 T
b11101 2
b11101 V
b11100 4
b11100 O
b10111111111111111111111111101 :
b10111111111111111111111111101 _
b101000 !
b101000 A
b101000 M
b101000 ^
#4805000
bx 6
bx B
bx /
bx I
bx R
b0 0
b0 D
b0 Q
#4860000
1#
#4920000
b101001 '
0#
#4923000
bx 5
bx S
bx >
bx C
bx F
bx H
b10000 P
b100 ;
b100 N
b100 Y
0Z
b11 +
b11 X
b11 ]
b111 ?
b111 E
b111 \
0=
1<
0*
11
b1100 ,
b1100 U
b10001100 W
b10110100000 3
b10110100000 [
b100 -
b100 T
b1100 2
b1100 V
b100000 4
b100000 O
b10110100000000000000000010001100 :
b10110100000000000000000010001100 _
b11100 !
b11100 A
b11100 M
b11100 ^
#4925000
b0xxx 5
b0xxx S
b111 >
b111 C
b111 F
b111 H
b111 6
b111 B
b111 /
b111 I
b111 R
bx 0
bx D
bx Q
#4980000
1#
#5040000
b101010 '
0#
